alembic==1.0.11
asn1crypto==0.24.0
bcrypt==3.1.7
beautifulsoup4==4.6.0
certifi==2018.1.18
cffi==1.12.3
chardet==3.0.4
click==7.1.2
crontab==0.22.9
cryptography==2.1.4
Django==1.11.22
dotenv==0.0.5
enum34==1.1.6
Flask==1.1.2
Flask-Bcrypt==0.7.1
Flask-Cors==3.0.8
Flask-Migrate==2.5.2
Flask-Script==2.0.6
Flask-SQLAlchemy==2.4.0
gunicorn==19.10.0
gyp==0.1
html5lib==0.999999999
idna==2.8
ipaddress==1.0.22
itsdangerous==1.1.0
Jinja2==2.11.2
keyring==10.6.0
keyrings.alt==3.0
lxml==4.2.1
Mako==1.0.13
MarkupSafe==1.1.1
marshmallow==2.19.5
mysql-connector-python==8.0.16
numpy==1.13.3
pika==1.1.0
protobuf==3.9.0
pyasn1==0.4.5
pycparser==2.19
pycrypto==2.6.1
pycurl==7.43.0.1
pygobject==3.26.1
PyJWT==1.7.1
pyliblzma==0.5.3
PyMySQL==0.9.3
pysqlite==1.0.1
pystache==0.5.4
python-dateutil==2.8.0
python-dotenv==0.10.3
python-editor==1.0.4
pytz==2019.1
pyxdg==0.25
rpm==4.14.1
SecretStorage==2.3.1
six==1.12.0
SQLAlchemy==1.3.5
typing==3.7.4
urlgrabber==3.10.2
uWSGI==2.0.19.1
vboxapi==1.0
virtualenv==16.6.1
waitress==1.4.4
webencodings==0.5
Werkzeug==1.0.1
yum-metadata-parser==1.1.4
